…
---

    Code
      spatial_buffer_vfold_cv(boston_canopy, v = 682, radius = 500, buffer = 500)
    Output
      #  682-fold spatial cross-validation 
      # A tibble: 682 x 2
         splits          id     
         <list>          <chr>  
       1 <split [672/3]> Fold001
       2 <split [664/7]> Fold002
       3 <split [663/7]> Fold003
       4 <split [666/7]> Fold004
       5 <split [665/7]> Fold005
       6 <split [671/5]> Fold006
       7 <split [671/6]> Fold007
       8 <split [663/7]> Fold008
       9 <split [663/7]> Fold009
      10 <split [665/7]> Fold010
      # ... with 672 more rows

---

    Code
      spatial_leave_location_out_cv(ames_sf, Neighborhood, v = 682, radius = 500,
        buffer = 500)
    Condition
      Warning in `spatial_leave_location_out_cv()`:
      Fewer than 682 locations available for sampling
      i Setting `v` to 28
    Output
      #  28-fold spatial leave-location-out cross-validation 
      # A tibble: 28 x 2
         splits             id    
         <list>             <chr> 
       1 <split [2194/555]> Fold01
       2 <split [2220/397]> Fold02
       3 <split [2435/279]> Fold03
       4 <split [2779/151]> Fold04
       5 <split [2597/127]> Fold05
       6 <split [2598/197]> Fold06
       7 <split [2640/166]> Fold07
       8 <split [2617/136]> Fold08
       9 <split [2764/150]> Fold09
      10 <split [2501/324]> Fold10
      # ... with 18 more rows
…
