…
---

    Code
      spatial_leave_location_out_cv(ames_sf, Neighborhood, v = 60)
    Condition
      Warning in `spatial_leave_location_out_cv()`:
      Fewer than 60 locations available for sampling
      i Setting `v` to 28
    Output
      #  28-fold spatial leave-location-out cross-validation 
      # A tibble: 28 x 2
         splits             id        
         <list>             <chr>     
       1 <split [2816/114]> Resample01
       2 <split [2928/2]>   Resample02
       3 <split [2799/131]> Resample03
       4 <split [2827/103]> Resample04
       5 <split [2902/28]>  Resample05
       6 <split [2920/10]>  Resample06
       7 <split [2886/44]>  Resample07
       8 <split [2691/239]> Resample08
       9 <split [2779/151]> Resample09
      10 <split [2748/182]> Resample10
      # ... with 18 more rows

---

    Code
      spatial_buffer_vfold_cv(boston_canopy, v = 683, buffer = NULL, radius = NULL)
    Condition
      Warning in `spatial_buffer_vfold_cv()`:
      Fewer than 683 rows available for sampling
      i Setting `v` to 682
    Output
      #  682-fold spatial cross-validation 
      # A tibble: 682 x 2
         splits          id     
         <list>          <chr>  
       1 <split [681/1]> Fold001
       2 <split [681/1]> Fold002
       3 <split [681/1]> Fold003
       4 <split [681/1]> Fold004
       5 <split [681/1]> Fold005
       6 <split [681/1]> Fold006
       7 <split [681/1]> Fold007
       8 <split [681/1]> Fold008
       9 <split [681/1]> Fold009
      10 <split [681/1]> Fold010
      # ... with 672 more rows
…
