…
---

    Code
      spatial_block_cv(ames_sf, method = "snake", relevant_only = FALSE, v = 28)
    Condition
      Warning:
      Not all folds contained blocks with data:
      x 28 folds were requested, but only 27 contain any data.
      x Empty folds were dropped.
      i To avoid this, set `relevant_only = TRUE`.
    Output
      #  27-fold spatial block cross-validation 
      # A tibble: 27 x 2
         splits             id    
         <list>             <chr> 
       1 <split [2790/140]> Fold01
       2 <split [2726/204]> Fold02
       3 <split [2820/110]> Fold03
       4 <split [2877/53]>  Fold04
       5 <split [2851/79]>  Fold05
       6 <split [2877/53]>  Fold06
       7 <split [2886/44]>  Fold07
       8 <split [2736/194]> Fold08
       9 <split [2919/11]>  Fold09
      10 <split [2855/75]>  Fold10
      # ... with 17 more rows

---

    Code
      spatial_block_cv(ames_sf, method = "snake", v = 60)
    Condition
      Warning in `spatial_block_cv()`:
      Fewer than 60 blocks available for sampling
      i Setting `v` to 54
    Output
      #  54-fold spatial block cross-validation 
      # A tibble: 54 x 2
         splits             id    
         <list>             <chr> 
       1 <split [2917/13]>  Fold01
       2 <split [2818/112]> Fold02
       3 <split [2926/4]>   Fold03
       4 <split [2928/2]>   Fold04
       5 <split [2929/1]>   Fold05
       6 <split [2896/34]>  Fold06
       7 <split [2905/25]>  Fold07
       8 <split [2900/30]>  Fold08
       9 <split [2929/1]>   Fold09
      10 <split [2923/7]>   Fold10
      # ... with 44 more rows

---

    Code
      spatial_block_cv(ames_sf, v = 60)
    Condition
      Warning in `spatial_block_cv()`:
      Fewer than 60 blocks available for sampling
      i Setting `v` to 54
    Output
      #  54-fold spatial block cross-validation 
      # A tibble: 54 x 2
         splits             id    
         <list>             <chr> 
       1 <split [2745/185]> Fold01
       2 <split [2803/127]> Fold02
       3 <split [2900/30]>  Fold03
       4 <split [2927/3]>   Fold04
       5 <split [2915/15]>  Fold05
       6 <split [2918/12]>  Fold06
       7 <split [2887/43]>  Fold07
       8 <split [2854/76]>  Fold08
       9 <split [2927/3]>   Fold09
      10 <split [2870/60]>  Fold10
      # ... with 44 more rows
…
