Using spatial resamples for analysis • spatialsample
…
We can apply this function to just one of the splits.

compute_preds(folds$splits[[7]]) 
#> # A tibble: 212 × 4
#>    Longitude Latitude Sale_Price .pred
#>        <dbl>    <dbl>      <dbl> <dbl>
#>  1     -93.7     42.0       5.37  5.45
#>  2     -93.7     42.0       5.26  5.37
#>  3     -93.7     42.0       5.31  5.42
#>  4     -93.7     42.0       5.16  5.07
#>  5     -93.7     42.0       5.28  5.37
#>  6     -93.7     42.0       5.00  5.06
#>  7     -93.7     42.0       5.10  4.99
#>  8     -93.7     42.0       5.29  5.36
#>  9     -93.7     42.0       5.18  5.18
#> 10     -93.7     42.0       5.23  5.29
#> # … with 202 more rows
…
