Nearest neighbor distance matching (NNDM) cross-validation — spatial_nndm_cv • spatialsample
…
H. Meyer and E. Pebesma. 2022. "Machine learning-based global maps of
ecological variables and the challenge of assessing them."
Nature Communications 13, pp 2208. doi: 10.1038/s41467-022-29838-9.

    Examples

data(ames, package = "modeldata")
ames_sf <- sf::st_as_sf(ames, coords = c("Longitude", "Latitude"), crs = 4326)

# Using a small subset of the data, to make the example run faster:
spatial_nndm_cv(ames_sf[1:100, ], ames_sf[2001:2100, ])
#> # A tibble: 100 × 2
#>    splits         id     
#>    <list>         <chr>  
#>  1 <split [50/1]> Fold001
#>  2 <split [83/1]> Fold002
#>  3 <split [50/1]> Fold003
#>  4 <split [50/1]> Fold004
#>  5 <split [50/1]> Fold005
#>  6 <split [50/1]> Fold006
#>  7 <split [50/1]> Fold007
#>  8 <split [76/1]> Fold008
#>  9 <split [86/1]> Fold009
#> 10 <split [88/1]> Fold010
#> # ℹ 90 more rows
…
